<svg width="36" height="36" viewBox="0 0 36 36" fill="none" xmlns="http://www.w3.org/2000/svg">
<path d="M4.5 18C4.5 20.481 6.519 22.5 9 22.5C10.191 22.5 11.268 22.0275 12.0735 21.27L21.06 26.406C21.033 26.601 21 26.796 21 27C21 29.481 23.019 31.5 25.5 31.5C27.981 31.5 30 29.481 30 27C30 24.519 27.981 22.5 25.5 22.5C24.309 22.5 23.232 22.9725 22.4265 23.73L13.44 18.5955C13.467 18.399 13.5 18.204 13.5 18C13.5 17.796 13.467 17.601 13.44 17.4045L22.4265 12.27C23.232 13.0275 24.309 13.5 25.5 13.5C27.981 13.5 30 11.481 30 9C30 6.519 27.981 4.5 25.5 4.5C23.019 4.5 21 6.519 21 9C21 9.204 21.033 9.399 21.06 9.5955L12.0735 14.73C11.244 13.942 10.1441 13.5018 9 13.5C6.519 13.5 4.5 15.519 4.5 18Z" fill="#717171"/>
</svg>
